^C:\USERS\DELL\DOCUMENTS\VISUAL STUDIO 2012\PROJECTS\LAB\LAB\DEBUG\TASK1.OBJ
/OUT:"C:\USERS\DELL\DOCUMENTS\VISUAL STUDIO 2012\PROJECTS\LAB\DEBUG\LAB.EXE" /INCREMENTAL /NOLOGO kernel32.lib user32.lib gdi32.lib winspool.lib comdlg32.lib advapi32.lib shell32.lib ole32.lib oleaut32.lib uuid.lib odbc32.lib odbccp32.lib /MANIFEST /MANIFESTUAC:"level='asInvoker' uiAccess='false'" /manifest:embed /DEBUG /PDB:"C:\USERS\DELL\DOCUMENTS\VISUAL STUDIO 2012\PROJECTS\LAB\DEBUG\LAB.PDB" /SUBSYSTEM:CONSOLE /TLBID:1 /DYNAMICBASE /NXCOMPAT /IMPLIB:"C:\USERS\DELL\DOCUMENTS\VISUAL STUDIO 2012\PROJECTS\LAB\DEBUG\LAB.LIB" /MACHINE:X86 DEBUG\TASK1.OBJ
^C:\USERS\DELL\DOCUMENTS\VISUAL STUDIO 2012\PROJECTS\LAB\LAB\DEBUG\CLUE.OBJ|C:\USERS\DELL\DOCUMENTS\VISUAL STUDIO 2012\PROJECTS\LAB\LAB\DEBUG\TASK1.OBJ|C:\USERS\DELL\DOCUMENTS\VISUAL STUDIO 2012\PROJECTS\LAB\LAB\DEBUG\TASK2.OBJ|C:\USERS\DELL\DOCUMENTS\VISUAL STUDIO 2012\PROJECTS\LAB\LAB\DEBUG\TASK3.OBJ|C:\USERS\DELL\DOCUMENTS\VISUAL STUDIO 2012\PROJECTS\LAB\LAB\DEBUG\TASK3PART2.OBJ|C:\USERS\DELL\DOCUMENTS\VISUAL STUDIO 2012\PROJECTS\LAB\LAB\DEBUG\TASK4.OBJ|C:\USERS\DELL\DOCUMENTS\VISUAL STUDIO 2012\PROJECTS\LAB\LAB\DEBUG\TASK5.OBJ
/OUT:"C:\USERS\DELL\DOCUMENTS\VISUAL STUDIO 2012\PROJECTS\LAB\DEBUG\LAB.EXE" /INCREMENTAL /NOLOGO kernel32.lib user32.lib gdi32.lib winspool.lib comdlg32.lib advapi32.lib shell32.lib ole32.lib oleaut32.lib uuid.lib odbc32.lib odbccp32.lib /MANIFEST /MANIFESTUAC:"level='asInvoker' uiAccess='false'" /manifest:embed /DEBUG /PDB:"C:\USERS\DELL\DOCUMENTS\VISUAL STUDIO 2012\PROJECTS\LAB\DEBUG\LAB.PDB" /SUBSYSTEM:CONSOLE /TLBID:1 /DYNAMICBASE /NXCOMPAT /IMPLIB:"C:\USERS\DELL\DOCUMENTS\VISUAL STUDIO 2012\PROJECTS\LAB\DEBUG\LAB.LIB" /MACHINE:X86 DEBUG\CLUE.OBJDEBUG\TASK2.OBJDEBUG\TASK1.OBJDEBUG\TASK3.OBJDEBUG\TASK3PART2.OBJDEBUG\TASK4.OBJDEBUG\TASK5.OBJ
^D:\LAB-07\LAB\LAB\DEBUG\CLUE.OBJ|D:\LAB-07\LAB\LAB\DEBUG\LAST1.OBJ|D:\LAB-07\LAB\LAB\DEBUG\TASK1.OBJ|D:\LAB-07\LAB\LAB\DEBUG\TASK2.OBJ|D:\LAB-07\LAB\LAB\DEBUG\TASK3.OBJ|D:\LAB-07\LAB\LAB\DEBUG\TASK3PART2.OBJ|D:\LAB-07\LAB\LAB\DEBUG\TASK4.OBJ|D:\LAB-07\LAB\LAB\DEBUG\TASK5.OBJ
/OUT:"D:\LAB-07\LAB\DEBUG\LAB.EXE" /INCREMENTAL /NOLOGO kernel32.lib user32.lib gdi32.lib winspool.lib comdlg32.lib advapi32.lib shell32.lib ole32.lib oleaut32.lib uuid.lib odbc32.lib odbccp32.lib /MANIFEST /MANIFESTUAC:"level='asInvoker' uiAccess='false'" /manifest:embed /DEBUG /PDB:"D:\LAB-07\LAB\DEBUG\LAB.PDB" /SUBSYSTEM:CONSOLE /TLBID:1 /DYNAMICBASE /NXCOMPAT /IMPLIB:"D:\LAB-07\LAB\DEBUG\LAB.LIB" /MACHINE:X86 DEBUG\CLUE.OBJDEBUG\LAST1.OBJDEBUG\TASK2.OBJDEBUG\TASK1.OBJDEBUG\TASK3.OBJDEBUG\TASK3PART2.OBJDEBUG\TASK4.OBJDEBUG\TASK5.OBJ
