3, Android charging cable 1m, 200
88, USB Drive HP -- 32GB, 750
8, Glass protector, 100
23, Android charging cable 1.5m, 230
94, Charger w/o cable USB, 300
70, Phone cover (Colored), 450
59, Charging cable iPhone (original), 2500
6, Memory Card -- 32GB, 500
36, Memory Card -- 64GB, 600
67, Memory Card -- 128GB, 1100